^C:\USERS\CZAJNUSX\DOCUMENTS\VISUAL STUDIO 2015\PROJECTS\CALKOWANIE\CALKOWANIE2\DEBUG\SOURCE.OBJ
/OUT:"C:\USERS\CZAJNUSX\DOCUMENTS\VISUAL STUDIO 2015\PROJECTS\CALKOWANIE\DEBUG\CALKOWANIE2.EXE" /INCREMENTAL /NOLOGO KERNEL32.LIB USER32.LIB GDI32.LIB WINSPOOL.LIB COMDLG32.LIB ADVAPI32.LIB SHELL32.LIB OLE32.LIB OLEAUT32.LIB UUID.LIB ODBC32.LIB ODBCCP32.LIB /MANIFEST /MANIFESTUAC:"level='asInvoker' uiAccess='false'" /manifest:embed /DEBUG:FASTLINK /PDB:"C:\USERS\CZAJNUSX\DOCUMENTS\VISUAL STUDIO 2015\PROJECTS\CALKOWANIE\DEBUG\CALKOWANIE2.PDB" /TLBID:1 /DYNAMICBASE /NXCOMPAT /IMPLIB:"C:\USERS\CZAJNUSX\DOCUMENTS\VISUAL STUDIO 2015\PROJECTS\CALKOWANIE\DEBUG\CALKOWANIE2.LIB" /MACHINE:X86 DEBUG\SOURCE.OBJ
^D:\STUDIA\PROJECTS\PROJECTS\CALKOWANIE\CALKOWANIE2\DEBUG\SOURCE.OBJ
/OUT:"D:\STUDIA\PROJECTS\PROJECTS\CALKOWANIE\DEBUG\CALKOWANIE2.EXE" /INCREMENTAL /NOLOGO KERNEL32.LIB USER32.LIB GDI32.LIB WINSPOOL.LIB COMDLG32.LIB ADVAPI32.LIB SHELL32.LIB OLE32.LIB OLEAUT32.LIB UUID.LIB ODBC32.LIB ODBCCP32.LIB /MANIFEST /MANIFESTUAC:"level='asInvoker' uiAccess='false'" /manifest:embed /DEBUG:FASTLINK /PDB:"D:\STUDIA\PROJECTS\PROJECTS\CALKOWANIE\DEBUG\CALKOWANIE2.PDB" /TLBID:1 /DYNAMICBASE /NXCOMPAT /IMPLIB:"D:\STUDIA\PROJECTS\PROJECTS\CALKOWANIE\DEBUG\CALKOWANIE2.LIB" /MACHINE:X86 DEBUG\SOURCE.OBJ
