^D:\STUDIA\PROJECTS\PROJECTS\CALKOWANIE\CALKOWANIE\SOURCE.CPP
D:\STUDIA\PROJECTS\PROJECTS\CALKOWANIE\CALKOWANIE\DEBUG\VC140.PDB
D:\STUDIA\PROJECTS\PROJECTS\CALKOWANIE\CALKOWANIE\DEBUG\VC140.IDB
D:\STUDIA\PROJECTS\PROJECTS\CALKOWANIE\CALKOWANIE\DEBUG\SOURCE.OBJ
